{
    "book_order" : ["book1","book2"],
    "character_order" : ["C001","C004","C005","C014","C015","C016","C017","C002","C003","C006","C007","C008","C009","C010","C011","C012","C013","I001","I002","I003","I004","I005"],
    "custom_character_order" : ["C001_custom","C004_custom","C005_custom","C015_custom","C016_custom","C002_custom","C003_custom","C006_custom","C007_custom",
                                "C008_custom","C009_custom","C010_custom","C011_custom","C012_custom"],
    "background_order" : ["B001","B002","B003","B004","B005","B006","B016","B008","B009","B017","B011","B012","B013","B014","B015"],
    "sound_order" : ["S000","S001","S002","S003","S004","S005","S006","S007","S008","S009","S010"]
}